data/longCableData30m/out/vOut.CSV

Format,1.0B,
Memory Length,10000,
IntpDistance,0,
Trigger Address,4999,
Trigger Level,8.000E-02,
Source,CH1,
Vertical Units,V,
Vertical Units Div,0,
Vertical Units Extend Div,16,
Label, ,
Probe Type,0,
Probe Ratio,1.000E+00,
Vertical Scale,2.000E+00,
Vertical Position,2.480E+00,
Horizontal Units,S,
Horizontal Scale,5.000E-07,
Horizontal Position,0.000E+00,
Horizontal Mode,Main,
SincET Mode,Real Time,
Sampling Period,2.000E-09,
Horizontal Old Scale,5.000E-07,
Horizontal Old Position,0.000E+00,
Firmware,V1.31,
Mode,Detail,
Waveform Data,
-1.000000e-05,2.24e+00,
-9.998000e-06,2.48e+00,
-9.996000e-06,2.48e+00,
-9.994000e-06,2.48e+00,
-9.992000e-06,2.56e+00,
-9.990000e-06,2.40e+00,
-9.988000e-06,2.48e+00,
-9.986000e-06,2.48e+00,
-9.984000e-06,2.48e+00,
-9.982000e-06,2.48e+00,
-9.980000e-06,2.48e+00,
-9.978000e-06,2.48e+00,
-9.976000e-06,2.48e+00,
-9.974000e-06,2.48e+00,
-9.972000e-06,2.48e+00,
-9.970000e-06,2.56e+00,
-9.968000e-06,2.56e+00,
-9.966000e-06,2.48e+00,
-9.964000e-06,2.56e+00,
-9.962000e-06,2.56e+00,
-9.960000e-06,2.56e+00,
-9.958000e-06,2.48e+00,
-9.956000e-06,2.48e+00,
-9.954000e-06,2.48e+00,
-9.952000e-06,2.48e+00,
-9.950000e-06,2.48e+00,
-9.948000e-06,2.40e+00,
-9.946000e-06,2.48e+00,
-9.944000e-06,2.48e+00,
-9.942000e-06,2.40e+00,
-9.940000e-06,2.40e+00,
-9.938000e-06,2.48e+00,
-9.936000e-06,2.48e+00,
-9.934000e-06,2.48e+00,
-9.932000e-06,2.48e+00,
-9.930000e-06,2.40e+00,
-9.928000e-06,2.40e+00,
-9.926000e-06,2.48e+00,
-9.924000e-06,2.48e+00,
-9.922000e-06,2.48e+00,
-9.920000e-06,2.48e+00,
-9.918000e-06,2.40e+00,
-9.916000e-06,2.40e+00,
-9.914000e-06,2.48e+00,
-9.912000e-06,2.48e+00,
-9.910000e-06,2.48e+00,
-9.908000e-06,2.48e+00,
-9.906000e-06,2.48e+00,
-9.904000e-06,2.48e+00,
-9.902000e-06,2.48e+00,
-9.900000e-06,2.48e+00,
-9.898000e-06,2.48e+00,
-9.896000e-06,2.48e+00,
-9.894000e-06,2.40e+00,
-9.892000e-06,2.48e+00,
-9.890000e-06,2.48e+00,
-9.888000e-06,2.48e+00,
-9.886000e-06,2.48e+00,
-9.884000e-06,2.48e+00,
-9.882000e-06,2.48e+00,
-9.880000e-06,2.48e+00,
-9.878000e-06,2.48e+00,
-9.876000e-06,2.48e+00,
-9.874000e-06,2.48e+00,
-9.872000e-06,2.48e+00,
-9.870000e-06,2.40e+00,
-9.868000e-06,2.40e+00,
-9.866000e-06,2.48e+00,
-9.864000e-06,2.48e+00,
-9.862000e-06,2.48e+00,
-9.860000e-06,2.48e+00,
-9.858000e-06,2.48e+00,
-9.856000e-06,2.48e+00,
-9.854000e-06,2.48e+00,
-9.852000e-06,2.48e+00,
-9.850000e-06,2.48e+00,
-9.848000e-06,2.48e+00,
-9.846000e-06,2.40e+00,
-9.844000e-06,2.48e+00,
-9.842000e-06,2.48e+00,
-9.840000e-06,2.48e+00,
-9.838000e-06,2.48e+00,
-9.836000e-06,2.48e+00,
-9.834000e-06,2.48e+00,
-9.832000e-06,2.48e+00,
-9.830000e-06,2.48e+00,
-9.828000e-06,2.48e+00,
-9.826000e-06,2.48e+00,
-9.824000e-06,2.48e+00,
-9.822000e-06,2.40e+00,
-9.820000e-06,2.40e+00,
-9.818000e-06,2.48e+00,
-9.816000e-06,2.48e+00,
-9.814000e-06,2.48e+00,
-9.812000e-06,2.48e+00,
-9.810000e-06,2.40e+00,
-9.808000e-06,2.40e+00,
-9.806000e-06,2.40e+00,
-9.804000e-06,2.40e+00,
-9.802000e-06,2.48e+00,
-9.800000e-06,2.48e+00,
-9.798000e-06,2.40e+00,
-9.796000e-06,2.40e+00,
-9.794000e-06,2.48e+00,
-9.792000e-06,2.48e+00,
-9.790000e-06,2.48e+00,
-9.788000e-06,2.48e+00,
-9.786000e-06,2.48e+00,
-9.784000e-06,2.48e+00,
-9.782000e-06,2.48e+00,
-9.780000e-06,2.48e+00,
-9.778000e-06,2.48e+00,
-9.776000e-06,2.48e+00,
-9.774000e-06,2.40e+00,
-9.772000e-06,2.40e+00,
-9.770000e-06,2.48e+00,
-9.768000e-06,2.48e+00,
-9.766000e-06,2.48e+00,
-9.764000e-06,2.48e+00,
-9.762000e-06,2.48e+00,
-9.760000e-06,2.48e+00,
-9.758000e-06,2.48e+00,
-9.756000e-06,2.48e+00,
-9.754000e-06,2.48e+00,
-9.752000e-06,2.48e+00,
-9.750000e-06,2.40e+00,
-9.748000e-06,2.40e+00,
-9.746000e-06,2.48e+00,
-9.744000e-06,2.48e+00,
-9.742000e-06,2.48e+00,
-9.740000e-06,2.48e+00,
-9.738000e-06,2.40e+00,
-9.736000e-06,2.48e+00,
-9.734000e-06,2.48e+00,
-9.732000e-06,2.48e+00,
-9.730000e-06,2.48e+00,
-9.728000e-06,2.56e+00,
-9.726000e-06,2.40e+00,
-9.724000e-06,2.48e+00,
-9.722000e-06,2.48e+00,
-9.720000e-06,2.40e+00,
-9.718000e-06,2.48e+00,
-9.716000e-06,2.48e+00,
-9.714000e-06,2.40e+00,
-9.712000e-06,2.48e+00,
-9.710000e-06,2.48e+00,
-9.708000e-06,2.40e+00,
-9.706000e-06,2.48e+00,
-9.704000e-06,2.48e+00,
-9.702000e-06,2.40e+00,
-9.700000e-06,2.48e+00,
-9.698000e-06,2.48e+00,
-9.696000e-06,2.40e+00,
-9.694000e-06,2.48e+00,
-9.692000e-06,2.48e+00,
-9.690000e-06,2.40e+00,
-9.688000e-06,2.48e+00,
-9.686000e-06,2.48e+00,
-9.684000e-06,2.40e+00,
-9.682000e-06,2.48e+00,
-9.680000e-06,2.48e+00,
-9.678000e-06,2.40e+00,
-9.676000e-06,2.48e+00,
-9.674000e-06,2.48e+00,
-9.672000e-06,2.48e+00,
-9.670000e-06,2.48e+00,
-9.668000e-06,2.48e+00,
-9.666000e-06,2.40e+00,
-9.664000e-06,2.40e+00,
-9.662000e-06,2.40e+00,
-9.660000e-06,2.40e+00,
-9.658000e-06,2.48e+00,
-9.656000e-06,2.48e+00,
-9.654000e-06,2.40e+00,
-9.652000e-06,2.48e+00,
-9.650000e-06,2.48e+00,
-9.648000e-06,2.40e+00,
-9.646000e-06,2.40e+00,
-9.644000e-06,2.48e+00,
-9.642000e-06,2.48e+00,
-9.640000e-06,2.48e+00,
-9.638000e-06,2.48e+00,
-9.636000e-06,2.48e+00,
-9.634000e-06,2.48e+00,
-9.632000e-06,2.48e+00,
-9.630000e-06,2.40e+00,
-9.628000e-06,2.48e+00,
-9.626000e-06,2.48e+00,
-9.624000e-06,2.48e+00,
-9.622000e-06,2.48e+00,
-9.620000e-06,2.48e+00,
-9.618000e-06,2.40e+00,
-9.616000e-06,2.40e+00,
-9.614000e-06,2.48e+00,
-9.612000e-06,2.48e+00,
-9.610000e-06,2.48e+00,
-9.608000e-06,2.48e+00,
-9.606000e-06,2.40e+00,
-9.604000e-06,2.48e+00,
-9.602000e-06,2.48e+00,
-9.600000e-06,2.48e+00,
-9.598000e-06,2.48e+00,
-9.596000e-06,2.48e+00,
-9.594000e-06,2.48e+00,
-9.592000e-06,2.48e+00,
-9.590000e-06,2.48e+00,
-9.588000e-06,2.48e+00,
-9.586000e-06,2.48e+00,
-9.584000e-06,2.48e+00,
-9.582000e-06,2.40e+00,
-9.580000e-06,2.48e+00,
-9.578000e-06,2.48e+00,
-9.576000e-06,2.40e+00,
-9.574000e-06,2.48e+00,
-9.572000e-06,2.48e+00,
-9.570000e-06,2.40e+00,
-9.568000e-06,2.40e+00,
-9.566000e-06,2.40e+00,
-9.564000e-06,2.40e+00,
-9.562000e-06,2.48e+00,
-9.560000e-06,2.48e+00,
-9.558000e-06,2.40e+00,
-9.556000e-06,2.48e+00,
-9.554000e-06,2.48e+00,
-9.552000e-06,2.40e+00,
-9.550000e-06,2.48e+00,
-9.548000e-06,2.48e+00,
-9.546000e-06,2.40e+00,
-9.544000e-06,2.40e+00,
-9.542000e-06,2.40e+00,
-9.540000e-06,2.40e+00,
-9.538000e-06,2.48e+00,
-9.536000e-06,2.48e+00,
-9.534000e-06,2.40e+00,
-9.532000e-06,2.48e+00,
-9.530000e-06,2.48e+00,
-9.528000e-06,2.40e+00,
-9.526000e-06,2.48e+00,
-9.524000e-06,2.48e+00,
-9.522000e-06,2.40e+00,
-9.520000e-06,2.40e+00,
-9.518000e-06,2.40e+00,
-9.516000e-06,2.40e+00,
-9.514000e-06,2.48e+00,
-9.512000e-06,2.48e+00,
-9.510000e-06,2.40e+00,
-9.508000e-06,2.48e+00,
-9.506000e-06,2.48e+00,
-9.504000e-06,2.40e+00,
-9.502000e-06,2.48e+00,
-9.500000e-06,2.48e+00,
-9.498000e-06,2.40e+00,
-9.496000e-06,2.40e+00,
-9.494000e-06,2.40e+00,
-9.492000e-06,2.40e+00,
-9.490000e-06,2.48e+00,
-9.488000e-06,2.48e+00,
-9.486000e-06,2.40e+00,
-9.484000e-06,2.48e+00,
-9.482000e-06,2.48e+00,
-9.480000e-06,2.40e+00,
-9.478000e-06,2.48e+00,
-9.476000e-06,2.48e+00,
-9.474000e-06,2.40e+00,
-9.472000e-06,2.40e+00,
-9.470000e-06,2.40e+00,
-9.468000e-06,2.40e+00,
-9.466000e-06,2.48e+00,
-9.464000e-06,2.48e+00,
-9.462000e-06,2.40e+00,
-9.460000e-06,2.48e+00,
-9.458000e-06,2.48e+00,
-9.456000e-06,2.40e+00,
-9.454000e-06,2.48e+00,
-9.452000e-06,2.48e+00,
-9.450000e-06,2.40e+00,
-9.448000e-06,2.40e+00,
-9.446000e-06,2.40e+00,
-9.444000e-06,2.40e+00,
-9.442000e-06,2.48e+00,
-9.440000e-06,2.48e+00,
-9.438000e-06,2.40e+00,
-9.436000e-06,2.48e+00,
-9.434000e-06,2.48e+00,
-9.432000e-06,2.40e+00,
-9.430000e-06,2.48e+00,
-9.428000e-06,2.48e+00,
-9.426000e-06,2.40e+00,
-9.424000e-06,2.40e+00,
-9.422000e-06,2.40e+00,
-9.420000e-06,2.40e+00,
-9.418000e-06,2.48e+00,
-9.416000e-06,2.48e+00,
-9.414000e-06,2.40e+00,
-9.412000e-06,2.48e+00,
-9.410000e-06,2.48e+00,
-9.408000e-06,2.40e+00,
-9.406000e-06,2.48e+00,
-9.404000e-06,2.48e+00,
-9.402000e-06,2.40e+00,
-9.400000e-06,2.40e+00,
-9.398000e-06,2.40e+00,
-9.396000e-06,2.40e+00,
-9.394000e-06,2.48e+00,
-9.392000e-06,2.48e+00,
-9.390000e-06,2.40e+00,
-9.388000e-06,2.48e+00,
-9.386000e-06,2.48e+00,
-9.384000e-06,2.40e+00,
-9.382000e-06,2.40e+00,
-9.380000e-06,2.48e+00,
-9.378000e-06,2.40e+00,
-9.376000e-06,2.40e+00,
-9.374000e-06,2.40e+00,
-9.372000e-06,2.40e+00,
-9.370000e-06,2.48e+00,
-9.368000e-06,2.48e+00,
-9.366000e-06,2.40e+00,
-9.364000e-06,2.40e+00,
-9.362000e-06,2.40e+00,
-9.360000e-06,2.40e+00,
-9.358000e-06,2.40e+00,
-9.356000e-06,2.48e+00,
-9.354000e-06,2.40e+00,
-9.352000e-06,2.40e+00,
-9.350000e-06,2.48e+00,
-9.348000e-06,2.48e+00,
-9.346000e-06,2.48e+00,
-9.344000e-06,2.48e+00,
-9.342000e-06,2.40e+00,
-9.340000e-06,2.40e+00,
-9.338000e-06,2.48e+00,
-9.336000e-06,2.40e+00,
-9.334000e-06,2.40e+00,
-9.332000e-06,2.48e+00,
-9.330000e-06,2.40e+00,
-9.328000e-06,2.40e+00,
-9.326000e-06,2.48e+00,
-9.324000e-06,2.48e+00,
-9.322000e-06,2.48e+00,
-9.320000e-06,2.48e+00,
-9.318000e-06,2.40e+00,
-9.316000e-06,2.48e+00,
-9.314000e-06,2.48e+00,
-9.312000e-06,2.40e+00,
-9.310000e-06,2.40e+00,
-9.308000e-06,2.48e+00,
-9.306000e-06,2.40e+00,
-9.304000e-06,2.40e+00,
-9.302000e-06,2.48e+00,
-9.300000e-06,2.48e+00,
-9.298000e-06,2.48e+00,
-9.296000e-06,2.48e+00,
-9.294000e-06,2.40e+00,
-9.292000e-06,2.48e+00,
-9.290000e-06,2.48e+00,
-9.288000e-06,2.48e+00,
-9.286000e-06,2.40e+00,
-9.284000e-06,2.48e+00,
-9.282000e-06,2.40e+00,
-9.280000e-06,2.40e+00,
-9.278000e-06,2.48e+00,
-9.276000e-06,2.48e+00,
-9.274000e-06,2.48e+00,
-9.272000e-06,2.40e+00,
-9.270000e-06,2.40e+00,
-9.268000e-06,2.40e+00,
-9.266000e-06,2.48e+00,
-9.264000e-06,2.40e+00,
-9.262000e-06,2.40e+00,
-9.260000e-06,2.48e+00,
-9.258000e-06,2.40e+00,
-9.256000e-06,2.40e+00,
-9.254000e-06,2.40e+00,
-9.252000e-06,2.40e+00,
-9.250000e-06,2.48e+00,
-9.248000e-06,2.48e+00,
-9.246000e-06,2.40e+00,
-9.244000e-06,2.48e+00,
-9.242000e-06,2.48e+00,
-9.240000e-06,2.40e+00,
-9.238000e-06,2.40e+00,
-9.236000e-06,2.40e+00,
-9.234000e-06,2.40e+00,
-9.232000e-06,2.40e+00,
-9.230000e-06,2.48e+00,
-9.228000e-06,2.48e+00,
-9.226000e-06,2.48e+00,
-9.224000e-06,2.48e+00,
-9.222000e-06,2.40e+00,
-9.220000e-06,2.40e+00,
-9.218000e-06,2.40e+00,
-9.216000e-06,2.40e+00,
-9.214000e-06,2.48e+00,
-9.212000e-06,2.48e+00,
-9.210000e-06,2.40e+00,
-9.208000e-06,2.40e+00,
-9.206000e-06,2.40e+00,
-9.204000e-06,2.40e+00,
-9.202000e-06,2.48e+00,
-9.200000e-06,2.48e+00,
-9.198000e-06,2.40e+00,
-9.196000e-06,2.48e+00,
-9.194000e-06,2.48e+00,
-9.192000e-06,2.40e+00,
-9.190000e-06,2.40e+00,
-9.188000e-06,2.48e+00,
-9.186000e-06,2.40e+00,
-9.184000e-06,2.40e+00,
-9.182000e-06,2.40e+00,
-9.180000e-06,2.40e+00,
-9.178000e-06,2.48e+00,
-9.176000e-06,2.48e+00,
-9.174000e-06,2.40e+00,
-9.172000e-06,2.48e+00,
-9.170000e-06,2.48e+00,
-9.168000e-06,2.40e+00,
-9.166000e-06,2.48e+00,
-9.164000e-06,2.48e+00,
-9.162000e-06,2.40e+00,
-9.160000e-06,2.40e+00,
-9.158000e-06,2.40e+00,
-9.156000e-06,2.40e+00,
-9.154000e-06,2.48e+00,
-9.152000e-06,2.48e+00,
-9.150000e-06,2.40e+00,
-9.148000e-06,2.48e+00,
-9.146000e-06,2.48e+00,
-9.144000e-06,2.40e+00,
-9.142000e-06,2.40e+00,
-9.140000e-06,2.48e+00,
-9.138000e-06,2.40e+00,
-9.136000e-06,2.40e+00,
-9.134000e-06,2.40e+00,
-9.132000e-06,2.40e+00,
-9.130000e-06,2.48e+00,
-9.128000e-06,2.48e+00,
-9.126000e-06,2.40e+00,
-9.124000e-06,2.48e+00,
-9.122000e-06,2.48e+00,
-9.120000e-06,2.40e+00,
-9.118000e-06,2.40e+00,
-9.116000e-06,2.48e+00,
-9.114000e-06,2.40e+00,
-9.112000e-06,2.40e+00,
-9.110000e-06,2.40e+00,
-9.108000e-06,2.40e+00,
-9.106000e-06,2.48e+00,
-9.104000e-06,2.48e+00,
-9.102000e-06,2.40e+00,
-9.100000e-06,2.48e+00,
-9.098000e-06,2.48e+00,
-9.096000e-06,2.40e+00,
-9.094000e-06,2.40e+00,
-9.092000e-06,2.48e+00,
-9.090000e-06,2.40e+00,
-9.088000e-06,2.40e+00,
-9.086000e-06,2.40e+00,
-9.084000e-06,2.40e+00,
-9.082000e-06,2.48e+00,
-9.080000e-06,2.48e+00,
-9.078000e-06,2.40e+00,
-9.076000e-06,2.48e+00,
-9.074000e-06,2.48e+00,
-9.072000e-06,2.40e+00,
-9.070000e-06,2.48e+00,
-9.068000e-06,2.48e+00,
-9.066000e-06,2.40e+00,
-9.064000e-06,2.40e+00,
-9.062000e-06,2.40e+00,
-9.060000e-06,2.40e+00,
-9.058000e-06,2.48e+00,
-9.056000e-06,2.48e+00,
-9.054000e-06,2.40e+00,
-9.052000e-06,2.48e+00,
-9.050000e-06,2.48e+00,
-9.048000e-06,2.48e+00,
-9.046000e-06,2.40e+00,
-9.044000e-06,2.40e+00,
-9.042000e-06,2.40e+00,
-9.040000e-06,2.40e+00,
-9.038000e-06,2.48e+00,
-9.036000e-06,2.48e+00,
-9.034000e-06,2.48e+00,
-9.032000e-06,2.48e+00,
-9.030000e-06,2.40e+00,
-9.028000e-06,2.40e+00,
-9.026000e-06,2.40e+00,
-9.024000e-06,2.40e+00,
-9.022000e-06,2.48e+00,
-9.020000e-06,2.48e+00,
-9.018000e-06,2.40e+00,
-9.016000e-06,2.40e+00,
-9.014000e-06,2.40e+00,
-9.012000e-06,2.40e+00,
-9.010000e-06,2.40e+00,
-9.008000e-06,2.40e+00,
-9.006000e-06,1.68e+00,
-9.004000e-06,4.00e-01,
-9.002000e-06,-1.12e+00,
-9.000000e-06,-2.24e+00,
-8.998000e-06,-2.48e+00,
-8.996000e-06,-2.48e+00,
-8.994000e-06,-2.40e+00,
-8.992000e-06,-2.48e+00,
-8.990000e-06,-2.48e+00,
-8.988000e-06,-2.48e+00,
-8.986000e-06,-2.48e+00,
-8.984000e-06,-2.40e+00,
-8.982000e-06,-2.40e+00,
-8.980000e-06,-2.40e+00,
-8.978000e-06,-2.40e+00,
-8.976000e-06,-2.48e+00,
-8.974000e-06,-2.48e+00,
-8.972000e-06,-2.48e+00,
-8.970000e-06,-2.48e+00,
-8.968000e-06,-2.48e+00,
-8.966000e-06,-2.48e+00,
-8.964000e-06,-2.48e+00,
-8.962000e-06,-2.48e+00,
-8.960000e-06,-2.48e+00,
-8.958000e-06,-2.48e+00,
-8.956000e-06,-2.48e+00,
-8.954000e-06,-2.48e+00,
-8.952000e-06,-2.48e+00,
-8.950000e-06,-2.40e+00,
-8.948000e-06,-2.40e+00,
-8.946000e-06,-2.40e+00,
-8.944000e-06,-2.40e+00,
-8.942000e-06,-2.40e+00,
-8.940000e-06,-2.40e+00,
-8.938000e-06,-2.40e+00,
-8.936000e-06,-2.40e+00,
-8.934000e-06,-2.40e+00,
-8.932000e-06,-2.40e+00,
-8.930000e-06,-2.40e+00,
-8.928000e-06,-2.40e+00,
-8.926000e-06,-2.40e+00,
-8.924000e-06,-2.40e+00,
-8.922000e-06,-2.40e+00,
-8.920000e-06,-2.40e+00,
-8.918000e-06,-2.40e+00,
-8.916000e-06,-2.40e+00,
-8.914000e-06,-2.40e+00,
-8.912000e-06,-2.40e+00,
-8.910000e-06,-2.40e+00,
-8.908000e-06,-2.40e+00,
-8.906000e-06,-2.40e+00,
-8.904000e-06,-2.40e+00,
-8.902000e-06,-2.40e+00,
-8.900000e-06,-2.40e+00,
-8.898000e-06,-2.40e+00,
-8.896000e-06,-2.40e+00,
-8.894000e-06,-2.40e+00,
-8.892000e-06,-2.40e+00,
-8.890000e-06,-2.40e+00,
-8.888000e-06,-2.40e+00,
-8.886000e-06,-2.40e+00,
-8.884000e-06,-2.40e+00,
-8.882000e-06,-2.40e+00,
-8.880000e-06,-2.40e+00,
-8.878000e-06,-2.40e+00,
-8.876000e-06,-2.40e+00,
-8.874000e-06,-2.40e+00,
-8.872000e-06,-2.40e+00,
-8.870000e-06,-2.40e+00,
-8.868000e-06,-2.40e+00,
-8.866000e-06,-2.40e+00,
-8.864000e-06,-2.40e+00,
-8.862000e-06,-2.40e+00,
-8.860000e-06,-2.40e+00,
-8.858000e-06,-2.40e+00,
-8.856000e-06,-2.40e+00,
-8.854000e-06,-2.40e+00,
-8.852000e-06,-2.40e+00,
-8.850000e-06,-2.40e+00,
-8.848000e-06,-2.40e+00,
-8.846000e-06,-2.40e+00,
-8.844000e-06,-2.40e+00,
-8.842000e-06,-2.40e+00,
-8.840000e-06,-2.40e+00,
-8.838000e-06,-2.40e+00,
-8.836000e-06,-2.40e+00,
-8.834000e-06,-2.40e+00,
-8.832000e-06,-2.40e+00,
-8.830000e-06,-2.40e+00,
-8.828000e-06,-2.40e+00,
-8.826000e-06,-2.40e+00,
-8.824000e-06,-2.40e+00,
-8.822000e-06,-2.40e+00,
-8.820000e-06,-2.40e+00,
-8.818000e-06,-2.40e+00,
-8.816000e-06,-2.40e+00,
-8.814000e-06,-2.40e+00,
-8.812000e-06,-2.40e+00,
-8.810000e-06,-2.40e+00,
-8.808000e-06,-2.40e+00,
-8.806000e-06,-2.40e+00,
-8.804000e-06,-2.40e+00,
-8.802000e-06,-2.40e+00,
-8.800000e-06,-2.40e+00,
-8.798000e-06,-2.40e+00,
-8.796000e-06,-2.40e+00,
-8.794000e-06,-2.40e+00,
-8.792000e-06,-2.40e+00,
-8.790000e-06,-2.40e+00,
-8.788000e-06,-2.40e+00,
-8.786000e-06,-2.40e+00,
-8.784000e-06,-2.40e+00,
-8.782000e-06,-2.40e+00,
-8.780000e-06,-2.40e+00,
-8.778000e-06,-2.40e+00,
-8.776000e-06,-2.40e+00,
-8.774000e-06,-2.40e+00,
-8.772000e-06,-2.40e+00,
-8.770000e-06,-2.40e+00,
-8.768000e-06,-2.40e+00,
-8.766000e-06,-2.40e+00,
-8.764000e-06,-2.40e+00,
-8.762000e-06,-2.40e+00,
-8.760000e-06,-2.40e+00,
-8.758000e-06,-2.40e+00,
-8.756000e-06,-2.40e+00,
-8.754000e-06,-2.40e+00,
-8.752000e-06,-2.40e+00,
-8.750000e-06,-2.40e+00,
-8.748000e-06,-2.40e+00,
-8.746000e-06,-2.40e+00,
-8.744000e-06,-2.40e+00,
-8.742000e-06,-2.40e+00,
-8.740000e-06,-2.40e+00,
-8.738000e-06,-2.40e+00,
-8.736000e-06,-2.40e+00,
-8.734000e-06,-2.40e+00,
-8.732000e-06,-2.40e+00,
-8.730000e-06,-2.40e+00,
-8.728000e-06,-2.40e+00,
-8.726000e-06,-2.40e+00,
-8.724000e-06,-2.40e+00,
-8.722000e-06,-2.40e+00,
-8.720000e-06,-2.40e+00,
-8.718000e-06,-2.40e+00,
-8.716000e-06,-2.40e+00,
-8.714000e-06,-2.40e+00,
-8.712000e-06,-2.40e+00,
-8.710000e-06,-2.40e+00,
-8.708000e-06,-2.40e+00,
-8.706000e-06,-2.40e+00,
-8.704000e-06,-2.40e+00,
-8.702000e-06,-2.40e+00,
-8.700000e-06,-2.40e+00,
-8.698000e-06,-2.40e+00,
-8.696000e-06,-2.40e+00,
-8.694000e-06,-2.40e+00,
-8.692000e-06,-2.40e+00,
-8.690000e-06,-2.40e+00,
-8.688000e-06,-2.40e+00,
-8.686000e-06,-2.40e+00,
-8.684000e-06,-2.40e+00,
-8.682000e-06,-2.40e+00,
-8.680000e-06,-2.40e+00,
-8.678000e-06,-2.40e+00,
-8.676000e-06,-2.40e+00,
-8.674000e-06,-2.40e+00,
-8.672000e-06,-2.40e+00,
-8.670000e-06,-2.40e+00,
-8.668000e-06,-2.40e+00,
-8.666000e-06,-2.40e+00,
-8.664000e-06,-2.40e+00,
-8.662000e-06,-2.40e+00,
-8.660000e-06,-2.40e+00,
-8.658000e-06,-2.40e+00,
-8.656000e-06,-2.40e+00,
-8.654000e-06,-2.40e+00,
-8.652000e-06,-2.40e+00,
-8.650000e-06,-2.40e+00,
-8.648000e-06,-2.40e+00,
-8.646000e-06,-2.40e+00,
-8.644000e-06,-2.40e+00,
-8.642000e-06,-2.40e+00,
-8.640000e-06,-2.40e+00,
-8.638000e-06,-2.40e+00,
-8.636000e-06,-2.40e+00,
-8.634000e-06,-2.40e+00,
-8.632000e-06,-2.40e+00,
-8.630000e-06,-2.40e+00,
-8.628000e-06,-2.40e+00,
-8.626000e-06,-2.40e+00,
-8.624000e-06,-2.40e+00,
-8.622000e-06,-2.40e+00,
-8.620000e-06,-2.40e+00,
-8.618000e-06,-2.40e+00,
-8.616000e-06,-2.40e+00,
-8.614000e-06,-2.40e+00,
-8.612000e-06,-2.40e+00,
-8.610000e-06,-2.40e+00,
-8.608000e-06,-2.40e+00,
-8.606000e-06,-2.40e+00,
-8.604000e-06,-2.40e+00,
-8.602000e-06,-2.40e+00,
-8.600000e-06,-2.40e+00,
-8.598000e-06,-2.40e+00,
-8.596000e-06,-2.40e+00,
-8.594000e-06,-2.40e+00,
-8.592000e-06,-2.40e+00,
-8.590000e-06,-2.40e+00,
-8.588000e-06,-2.40e+00,
-8.586000e-06,-2.40e+00,
-8.584000e-06,-2.40e+00,
-8.582000e-06,-2.40e+00,
-8.580000e-06,-2.40e+00,
-8.578000e-06,-2.40e+00,
-8.576000e-06,-2.40e+00,
-8.574000e-06,-2.40e+00,
-8.572000e-06,-2.40e+00,
-8.570000e-06,-2.40e+00,
-8.568000e-06,-2.40e+00,
-8.566000e-06,-2.40e+00,
-8.564000e-06,-2.40e+00,
-8.562000e-06,-2.40e+00,
-8.560000e-06,-2.40e+00,
-8.558000e-06,-2.40e+00,
-8.556000e-06,-2.40e+00,
-8.554000e-06,-2.40e+00,
-8.552000e-06,-2.40e+00,
-8.550000e-06,-2.40e+00,
-8.548000e-06,-2.40e+00,
-8.546000e-06,-2.40e+00,
-8.544000e-06,-2.40e+00,
-8.542000e-06,-2.40e+00,
-8.540000e-06,-2.40e+00,
-8.538000e-06,-2.40e+00,
-8.536000e-06,-2.40e+00,
-8.534000e-06,-2.40e+00,
-8.532000e-06,-2.40e+00,
-8.530000e-06,-2.40e+00,
-8.528000e-06,-2.40e+00,
-8.526000e-06,-2.40e+00,
-8.524000e-06,-2.40e+00,
-8.522000e-06,-2.40e+00,
-8.520000e-06,-2.40e+00,
-8.518000e-06,-2.40e+00,
-8.516000e-06,-2.40e+00,
-8.514000e-06,-2.40e+00,
-8.512000e-06,-2.40e+00,
-8.510000e-06,-2.40e+00,
-8.508000e-06,-2.40e+00,
-8.506000e-06,-2.40e+00,
-8.504000e-06,-2.40e+00,
-8.502000e-06,-2.40e+00,
-8.500000e-06,-2.40e+00,
-8.498000e-06,-2.40e+00,
-8.496000e-06,-2.40e+00,
-8.494000e-06,-2.40e+00,
-8.492000e-06,-2.40e+00,
-8.490000e-06,-2.40e+00,
-8.488000e-06,-2.40e+00,
-8.486000e-06,-2.40e+00,
-8.484000e-06,-2.40e+00,
-8.482000e-06,-2.40e+00,
-8.480000e-06,-2.40e+00,
-8.478000e-06,-2.40e+00,
-8.476000e-06,-2.40e+00,
-8.474000e-06,-2.40e+00,
-8.472000e-06,-2.40e+00,
-8.470000e-06,-2.40e+00,
-8.468000e-06,-2.40e+00,
-8.466000e-06,-2.40e+00,
-8.464000e-06,-2.40e+00,
-8.462000e-06,-2.40e+00,
-8.460000e-06,-2.40e+00,
-8.458000e-06,-2.40e+00,
-8.456000e-06,-2.40e+00,
-8.454000e-06,-2.40e+00,
-8.452000e-06,-2.40e+00,
-8.450000e-06,-2.40e+00,
-8.448000e-06,-2.40e+00,
-8.446000e-06,-2.40e+00,
-8.444000e-06,-2.40e+00,
-8.442000e-06,-2.40e+00,
-8.440000e-06,-2.40e+00,
-8.438000e-06,-2.40e+00,
-8.436000e-06,-2.40e+00,
-8.434000e-06,-2.40e+00,
-8.432000e-06,-2.40e+00,
-8.430000e-06,-2.40e+00,
-8.428000e-06,-2.40e+00,
-8.426000e-06,-2.40e+00,
-8.424000e-06,-2.40e+00,
-8.422000e-06,-2.40e+00,
-8.420000e-06,-2.40e+00,
-8.418000e-06,-2.40e+00,
-8.416000e-06,-2.40e+00,
-8.414000e-06,-2.40e+00,
-8.412000e-06,-2.40e+00,
-8.410000e-06,-2.40e+00,
-8.408000e-06,-2.40e+00,
-8.406000e-06,-2.40e+00,
